Introduction to brpextravis package for reading and summarizing FARS data
…
fars_summarize_years that takes a vector of integer years as input and returns a summarized data frame containing the number of incidents for every month & year. Month and Years are represented in the columns.

fars_map_state that takes an integer state number and integer year as inputs and returns a state map with plots, where each dot represents a fatality incident.

Reading Raw Data

Raw Data are read using ‘fars_read’, and the filename construction can be facilitated by ‘make_filename’. Example:

filename <- make_filename(2013)
fars_2013 <- fars_read(file.path("..","extdata",filename)) 
dim(fars_2013)
#> [1] 30202    50
fars_2013
#> # A tibble: 30,202 x 50
#>    STATE ST_CASE VE_TOTAL VE_FORMS PVH_INVL  PEDS PERNOTMVIT PERMVIT
#>    <int>   <int>    <int>    <int>    <int> <int>      <int>   <int>
#>  1     1   10001        1        1        0     0          0       8
#>  2     1   10002        2        2        0     0          0       2
#>  3     1   10003        1        1        0     0          0       1
#>  4     1   10004        1        1        0     0          0       3
#>  5     1   10005        2        2        0     0          0       3
#>  6     1   10006        2        2        0     0          0       3
#>  7     1   10007        1        1        0     0          0       1
#>  8     1   10008        2        2        0     0          0       2
#>  9     1   10009        1        1        0     0          0       1
#> 10     1   10010        2        2        0     0          0       4
#> # ... with 30,192 more rows, and 42 more variables: PERSONS <int>,
#> #   COUNTY <int>, CITY <int>, DAY <int>, MONTH <int>, YEAR <int>,
#> #   DAY_WEEK <int>, HOUR <int>, MINUTE <int>, NHS <int>, ROAD_FNC <int>,
#> #   ROUTE <int>, TWAY_ID <chr>, TWAY_ID2 <chr>, MILEPT <int>,
#> #   LATITUDE <dbl>, LONGITUD <dbl>, SP_JUR <int>, HARM_EV <int>,
#> #   MAN_COLL <int>, RELJCT1 <int>, RELJCT2 <int>, TYP_INT <int>,
#> #   WRK_ZONE <int>, REL_ROAD <int>, LGT_COND <int>, WEATHER1 <int>,
#> #   WEATHER2 <int>, WEATHER <int>, SCH_BUS <int>, RAIL <chr>,
#> #   NOT_HOUR <int>, NOT_MIN <int>, ARR_HOUR <int>, ARR_MIN <int>,
…
